module github.com/decred/testnetfaucet

go 1.16

require (
	decred.org/dcrwallet v1.6.0-rc2
	github.com/decred/dcrd/chaincfg/v3 v3.0.0
	github.com/decred/dcrd/dcrutil/v3 v3.0.0
	github.com/decred/dcrd/rpcclient/v6 v6.0.1
	github.com/decred/dcrd/wire v1.4.0
	github.com/decred/slog v1.1.0
	github.com/gorilla/handlers v1.5.1
	github.com/gorilla/mux v1.8.0
	github.com/jessevdk/go-flags v1.4.1-0.20200711081900-c17162fe8fd7
	github.com/jrick/logrotate v1.0.0
)
